%YAML 1.1
%TAG !u! tag:unity3d.com,2011:
--- !u!1 &7721385885334906436
GameObject:
  m_ObjectHideFlags: 0
  m_CorrespondingSourceObject: {fileID: 0}
  m_PrefabInstance: {fileID: 0}
  m_PrefabAsset: {fileID: 0}
  serializedVersion: 6
  m_Component:
  - component: {fileID: 4310254202067828924}
  - component: {fileID: 8713666186279196773}
  - component: {fileID: 1092665313423043241}
  - component: {fileID: 3012328111573014297}
  m_Layer: 13
  m_Name: click_area
  m_TagString: Npc
  m_Icon: {fileID: 0}
  m_NavMeshLayer: 0
  m_StaticEditorFlags: 0
  m_IsActive: 1
--- !u!4 &4310254202067828924
Transform:
  m_ObjectHideFlags: 0
  m_CorrespondingSourceObject: {fileID: 0}
  m_PrefabInstance: {fileID: 0}
  m_PrefabAsset: {fileID: 0}
  m_GameObject: {fileID: 7721385885334906436}
  serializedVersion: 2
  m_LocalRotation: {x: -0, y: -0, z: -0, w: 1}
  m_LocalPosition: {x: 0, y: 0.376, z: 0}
  m_LocalScale: {x: 0.39999998, y: 0.71999997, z: 0.39999998}
  m_ConstrainProportionsScale: 0
  m_Children: []
  m_Father: {fileID: 6315754212498205768}
  m_LocalEulerAnglesHint: {x: 0, y: 0, z: 0}
--- !u!33 &8713666186279196773
MeshFilter:
  m_ObjectHideFlags: 0
  m_CorrespondingSourceObject: {fileID: 0}
  m_PrefabInstance: {fileID: 0}
  m_PrefabAsset: {fileID: 0}
  m_GameObject: {fileID: 7721385885334906436}
  m_Mesh: {fileID: 10202, guid: 0000000000000000e000000000000000, type: 0}
--- !u!23 &1092665313423043241
MeshRenderer:
  m_ObjectHideFlags: 0
  m_CorrespondingSourceObject: {fileID: 0}
  m_PrefabInstance: {fileID: 0}
  m_PrefabAsset: {fileID: 0}
  m_GameObject: {fileID: 7721385885334906436}
  m_Enabled: 0
  m_CastShadows: 1
  m_ReceiveShadows: 1
  m_DynamicOccludee: 1
  m_StaticShadowCaster: 0
  m_MotionVectors: 1
  m_LightProbeUsage: 1
  m_ReflectionProbeUsage: 1
  m_RayTracingMode: 2
  m_RayTraceProcedural: 0
  m_RayTracingAccelStructBuildFlagsOverride: 0
  m_RayTracingAccelStructBuildFlags: 1
  m_RenderingLayerMask: 1
  m_RendererPriority: 0
  m_Materials:
  - {fileID: 2100000, guid: 7b8b07f174adc784a8f3004e1355dd46, type: 2}
  m_StaticBatchInfo:
    firstSubMesh: 0
    subMeshCount: 0
  m_StaticBatchRoot: {fileID: 0}
  m_ProbeAnchor: {fileID: 0}
  m_LightProbeVolumeOverride: {fileID: 0}
  m_ScaleInLightmap: 1
  m_ReceiveGI: 1
  m_PreserveUVs: 0
  m_IgnoreNormalsForChartDetection: 0
  m_ImportantGI: 0
  m_StitchLightmapSeams: 1
  m_SelectedEditorRenderState: 3
  m_MinimumChartSize: 4
  m_AutoUVMaxDistance: 0.5
  m_AutoUVMaxAngle: 89
  m_LightmapParameters: {fileID: 0}
  m_SortingLayerID: 0
  m_SortingLayer: 0
  m_SortingOrder: 0
  m_AdditionalVertexStreams: {fileID: 0}
--- !u!64 &3012328111573014297
MeshCollider:
  m_ObjectHideFlags: 0
  m_CorrespondingSourceObject: {fileID: 0}
  m_PrefabInstance: {fileID: 0}
  m_PrefabAsset: {fileID: 0}
  m_GameObject: {fileID: 7721385885334906436}
  m_Material: {fileID: 0}
  m_IncludeLayers:
    serializedVersion: 2
    m_Bits: 0
  m_ExcludeLayers:
    serializedVersion: 2
    m_Bits: 0
  m_LayerOverridePriority: 0
  m_IsTrigger: 0
  m_ProvidesContacts: 0
  m_Enabled: 1
  serializedVersion: 5
  m_Convex: 0
  m_CookingOptions: 30
  m_Mesh: {fileID: 10202, guid: 0000000000000000e000000000000000, type: 0}
--- !u!1001 &5777178802284956579
PrefabInstance:
  m_ObjectHideFlags: 0
  serializedVersion: 2
  m_Modification:
    serializedVersion: 3
    m_TransformParent: {fileID: 0}
    m_Modifications:
    - target: {fileID: -8846901775555104804, guid: 24fd61ab19cca1f44b1d18bc9c2491e7, type: 3}
      propertyPath: m_Layer
      value: 6
      objectReference: {fileID: 0}
    - target: {fileID: -8679921383154817045, guid: 24fd61ab19cca1f44b1d18bc9c2491e7, type: 3}
      propertyPath: m_LocalPosition.x
      value: 4689.417
      objectReference: {fileID: 0}
    - target: {fileID: -8679921383154817045, guid: 24fd61ab19cca1f44b1d18bc9c2491e7, type: 3}
      propertyPath: m_LocalPosition.y
      value: -71.025505
      objectReference: {fileID: 0}
    - target: {fileID: -8679921383154817045, guid: 24fd61ab19cca1f44b1d18bc9c2491e7, type: 3}
      propertyPath: m_LocalPosition.z
      value: -1549.4412
      objectReference: {fileID: 0}
    - target: {fileID: -8679921383154817045, guid: 24fd61ab19cca1f44b1d18bc9c2491e7, type: 3}
      propertyPath: m_LocalRotation.w
      value: 1
      objectReference: {fileID: 0}
    - target: {fileID: -8679921383154817045, guid: 24fd61ab19cca1f44b1d18bc9c2491e7, type: 3}
      propertyPath: m_LocalRotation.x
      value: 0
      objectReference: {fileID: 0}
    - target: {fileID: -8679921383154817045, guid: 24fd61ab19cca1f44b1d18bc9c2491e7, type: 3}
      propertyPath: m_LocalRotation.y
      value: 0
      objectReference: {fileID: 0}
    - target: {fileID: -8679921383154817045, guid: 24fd61ab19cca1f44b1d18bc9c2491e7, type: 3}
      propertyPath: m_LocalRotation.z
      value: 0
      objectReference: {fileID: 0}
    - target: {fileID: -8679921383154817045, guid: 24fd61ab19cca1f44b1d18bc9c2491e7, type: 3}
      propertyPath: m_LocalEulerAnglesHint.x
      value: 0
      objectReference: {fileID: 0}
    - target: {fileID: -8679921383154817045, guid: 24fd61ab19cca1f44b1d18bc9c2491e7, type: 3}
      propertyPath: m_LocalEulerAnglesHint.y
      value: 0
      objectReference: {fileID: 0}
    - target: {fileID: -8679921383154817045, guid: 24fd61ab19cca1f44b1d18bc9c2491e7, type: 3}
      propertyPath: m_LocalEulerAnglesHint.z
      value: 0
      objectReference: {fileID: 0}
    - target: {fileID: -8529208411175462607, guid: 24fd61ab19cca1f44b1d18bc9c2491e7, type: 3}
      propertyPath: m_Layer
      value: 6
      objectReference: {fileID: 0}
    - target: {fileID: -8186231444542735877, guid: 24fd61ab19cca1f44b1d18bc9c2491e7, type: 3}
      propertyPath: m_Layer
      value: 6
      objectReference: {fileID: 0}
    - target: {fileID: -8095727646824069370, guid: 24fd61ab19cca1f44b1d18bc9c2491e7, type: 3}
      propertyPath: m_Layer
      value: 6
      objectReference: {fileID: 0}
    - target: {fileID: -7861387082091430400, guid: 24fd61ab19cca1f44b1d18bc9c2491e7, type: 3}
      propertyPath: m_Layer
      value: 6
      objectReference: {fileID: 0}
    - target: {fileID: -7594620016503233341, guid: 24fd61ab19cca1f44b1d18bc9c2491e7, type: 3}
      propertyPath: m_Layer
      value: 6
      objectReference: {fileID: 0}
    - target: {fileID: -7227477047240074653, guid: 24fd61ab19cca1f44b1d18bc9c2491e7, type: 3}
      propertyPath: m_Layer
      value: 6
      objectReference: {fileID: 0}
    - target: {fileID: -7158312719495107523, guid: 24fd61ab19cca1f44b1d18bc9c2491e7, type: 3}
      propertyPath: m_Layer
      value: 6
      objectReference: {fileID: 0}
    - target: {fileID: -7140157177206719041, guid: 24fd61ab19cca1f44b1d18bc9c2491e7, type: 3}
      propertyPath: m_Layer
      value: 6
      objectReference: {fileID: 0}
    - target: {fileID: -7111503837265204300, guid: 24fd61ab19cca1f44b1d18bc9c2491e7, type: 3}
      propertyPath: m_Layer
      value: 6
      objectReference: {fileID: 0}
    - target: {fileID: -7059725992318496587, guid: 24fd61ab19cca1f44b1d18bc9c2491e7, type: 3}
      propertyPath: m_Layer
      value: 6
      objectReference: {fileID: 0}
    - target: {fileID: -7046522451061757480, guid: 24fd61ab19cca1f44b1d18bc9c2491e7, type: 3}
      propertyPath: m_Layer
      value: 6
      objectReference: {fileID: 0}
    - target: {fileID: -6408293582362314164, guid: 24fd61ab19cca1f44b1d18bc9c2491e7, type: 3}
      propertyPath: m_Layer
      value: 6
      objectReference: {fileID: 0}
    - target: {fileID: -6188914061746206124, guid: 24fd61ab19cca1f44b1d18bc9c2491e7, type: 3}
      propertyPath: m_Layer
      value: 6
      objectReference: {fileID: 0}
    - target: {fileID: -5024612632842973525, guid: 24fd61ab19cca1f44b1d18bc9c2491e7, type: 3}
      propertyPath: m_Layer
      value: 6
      objectReference: {fileID: 0}
    - target: {fileID: -4822482461100068607, guid: 24fd61ab19cca1f44b1d18bc9c2491e7, type: 3}
      propertyPath: m_Layer
      value: 6
      objectReference: {fileID: 0}
    - target: {fileID: -4535076814864627347, guid: 24fd61ab19cca1f44b1d18bc9c2491e7, type: 3}
      propertyPath: m_Layer
      value: 6
      objectReference: {fileID: 0}
    - target: {fileID: -4324151433065305859, guid: 24fd61ab19cca1f44b1d18bc9c2491e7, type: 3}
      propertyPath: m_Layer
      value: 6
      objectReference: {fileID: 0}
    - target: {fileID: -4263335769669283965, guid: 24fd61ab19cca1f44b1d18bc9c2491e7, type: 3}
      propertyPath: m_Layer
      value: 6
      objectReference: {fileID: 0}
    - target: {fileID: -4184701455245348446, guid: 24fd61ab19cca1f44b1d18bc9c2491e7, type: 3}
      propertyPath: m_Layer
      value: 6
      objectReference: {fileID: 0}
    - target: {fileID: -4173460338368232333, guid: 24fd61ab19cca1f44b1d18bc9c2491e7, type: 3}
      propertyPath: m_Layer
      value: 6
      objectReference: {fileID: 0}
    - target: {fileID: -4127421923056779974, guid: 24fd61ab19cca1f44b1d18bc9c2491e7, type: 3}
      propertyPath: m_Layer
      value: 6
      objectReference: {fileID: 0}
    - target: {fileID: -4060624257722283761, guid: 24fd61ab19cca1f44b1d18bc9c2491e7, type: 3}
      propertyPath: m_Layer
      value: 6
      objectReference: {fileID: 0}
    - target: {fileID: -4040381507082647364, guid: 24fd61ab19cca1f44b1d18bc9c2491e7, type: 3}
      propertyPath: m_Layer
      value: 6
      objectReference: {fileID: 0}
    - target: {fileID: -4038327508420474911, guid: 24fd61ab19cca1f44b1d18bc9c2491e7, type: 3}
      propertyPath: m_Layer
      value: 6
      objectReference: {fileID: 0}
    - target: {fileID: -3794705722689770400, guid: 24fd61ab19cca1f44b1d18bc9c2491e7, type: 3}
      propertyPath: m_Layer
      value: 6
      objectReference: {fileID: 0}
    - target: {fileID: -3775739201857903089, guid: 24fd61ab19cca1f44b1d18bc9c2491e7, type: 3}
      propertyPath: m_Layer
      value: 6
      objectReference: {fileID: 0}
    - target: {fileID: -3775322299387265402, guid: 24fd61ab19cca1f44b1d18bc9c2491e7, type: 3}
      propertyPath: m_Layer
      value: 6
      objectReference: {fileID: 0}
    - target: {fileID: -3725608763098411430, guid: 24fd61ab19cca1f44b1d18bc9c2491e7, type: 3}
      propertyPath: m_Layer
      value: 6
      objectReference: {fileID: 0}
    - target: {fileID: -3601933624469217903, guid: 24fd61ab19cca1f44b1d18bc9c2491e7, type: 3}
      propertyPath: m_Layer
      value: 6
      objectReference: {fileID: 0}
    - target: {fileID: -3242066634057582467, guid: 24fd61ab19cca1f44b1d18bc9c2491e7, type: 3}
      propertyPath: m_Layer
      value: 6
      objectReference: {fileID: 0}
    - target: {fileID: -3023749914962768470, guid: 24fd61ab19cca1f44b1d18bc9c2491e7, type: 3}
      propertyPath: m_Layer
      value: 6
      objectReference: {fileID: 0}
    - target: {fileID: -2978503383700537357, guid: 24fd61ab19cca1f44b1d18bc9c2491e7, type: 3}
      propertyPath: m_Layer
      value: 6
      objectReference: {fileID: 0}
    - target: {fileID: -2487029812219828487, guid: 24fd61ab19cca1f44b1d18bc9c2491e7, type: 3}
      propertyPath: m_Layer
      value: 6
      objectReference: {fileID: 0}
    - target: {fileID: -2445649154254012139, guid: 24fd61ab19cca1f44b1d18bc9c2491e7, type: 3}
      propertyPath: m_Layer
      value: 6
      objectReference: {fileID: 0}
    - target: {fileID: -2444673761591648104, guid: 24fd61ab19cca1f44b1d18bc9c2491e7, type: 3}
      propertyPath: m_Layer
      value: 6
      objectReference: {fileID: 0}
    - target: {fileID: -2204187447138604174, guid: 24fd61ab19cca1f44b1d18bc9c2491e7, type: 3}
      propertyPath: m_Layer
      value: 6
      objectReference: {fileID: 0}
    - target: {fileID: -2004813714873647928, guid: 24fd61ab19cca1f44b1d18bc9c2491e7, type: 3}
      propertyPath: m_Layer
      value: 6
      objectReference: {fileID: 0}
    - target: {fileID: -1957907657828870891, guid: 24fd61ab19cca1f44b1d18bc9c2491e7, type: 3}
      propertyPath: m_Layer
      value: 6
      objectReference: {fileID: 0}
    - target: {fileID: -1753292204779474547, guid: 24fd61ab19cca1f44b1d18bc9c2491e7, type: 3}
      propertyPath: m_Layer
      value: 6
      objectReference: {fileID: 0}
    - target: {fileID: -1416194586757971787, guid: 24fd61ab19cca1f44b1d18bc9c2491e7, type: 3}
      propertyPath: m_Layer
      value: 6
      objectReference: {fileID: 0}
    - target: {fileID: -1257212154967688537, guid: 24fd61ab19cca1f44b1d18bc9c2491e7, type: 3}
      propertyPath: m_Layer
      value: 6
      objectReference: {fileID: 0}
    - target: {fileID: -1080125285039254881, guid: 24fd61ab19cca1f44b1d18bc9c2491e7, type: 3}
      propertyPath: m_Layer
      value: 6
      objectReference: {fileID: 0}
    - target: {fileID: -826772362489593922, guid: 24fd61ab19cca1f44b1d18bc9c2491e7, type: 3}
      propertyPath: m_Layer
      value: 6
      objectReference: {fileID: 0}
    - target: {fileID: -419640697531028318, guid: 24fd61ab19cca1f44b1d18bc9c2491e7, type: 3}
      propertyPath: m_Layer
      value: 6
      objectReference: {fileID: 0}
    - target: {fileID: -149973988903295587, guid: 24fd61ab19cca1f44b1d18bc9c2491e7, type: 3}
      propertyPath: m_Layer
      value: 6
      objectReference: {fileID: 0}
    - target: {fileID: -62223983336833616, guid: 24fd61ab19cca1f44b1d18bc9c2491e7, type: 3}
      propertyPath: m_Layer
      value: 6
      objectReference: {fileID: 0}
    - target: {fileID: 220781082249320136, guid: 24fd61ab19cca1f44b1d18bc9c2491e7, type: 3}
      propertyPath: m_Layer
      value: 6
      objectReference: {fileID: 0}
    - target: {fileID: 233822289384081295, guid: 24fd61ab19cca1f44b1d18bc9c2491e7, type: 3}
      propertyPath: m_Layer
      value: 6
      objectReference: {fileID: 0}
    - target: {fileID: 373464509060052646, guid: 24fd61ab19cca1f44b1d18bc9c2491e7, type: 3}
      propertyPath: m_Layer
      value: 6
      objectReference: {fileID: 0}
    - target: {fileID: 919132149155446097, guid: 24fd61ab19cca1f44b1d18bc9c2491e7, type: 3}
      propertyPath: m_Name
      value: orc_archer_prefab
      objectReference: {fileID: 0}
    - target: {fileID: 919132149155446097, guid: 24fd61ab19cca1f44b1d18bc9c2491e7, type: 3}
      propertyPath: m_Layer
      value: 6
      objectReference: {fileID: 0}
    - target: {fileID: 919132149155446097, guid: 24fd61ab19cca1f44b1d18bc9c2491e7, type: 3}
      propertyPath: m_TagString
      value: Npc
      objectReference: {fileID: 0}
    - target: {fileID: 1024831757184779587, guid: 24fd61ab19cca1f44b1d18bc9c2491e7, type: 3}
      propertyPath: m_Layer
      value: 6
      objectReference: {fileID: 0}
    - target: {fileID: 1098995727029902898, guid: 24fd61ab19cca1f44b1d18bc9c2491e7, type: 3}
      propertyPath: m_Layer
      value: 6
      objectReference: {fileID: 0}
    - target: {fileID: 1222988652998126524, guid: 24fd61ab19cca1f44b1d18bc9c2491e7, type: 3}
      propertyPath: m_Layer
      value: 6
      objectReference: {fileID: 0}
    - target: {fileID: 1446323515951803076, guid: 24fd61ab19cca1f44b1d18bc9c2491e7, type: 3}
      propertyPath: m_Layer
      value: 6
      objectReference: {fileID: 0}
    - target: {fileID: 1569104961411954509, guid: 24fd61ab19cca1f44b1d18bc9c2491e7, type: 3}
      propertyPath: m_Layer
      value: 6
      objectReference: {fileID: 0}
    - target: {fileID: 1619559181739102008, guid: 24fd61ab19cca1f44b1d18bc9c2491e7, type: 3}
      propertyPath: m_Layer
      value: 6
      objectReference: {fileID: 0}
    - target: {fileID: 1724500275981201589, guid: 24fd61ab19cca1f44b1d18bc9c2491e7, type: 3}
      propertyPath: m_Layer
      value: 6
      objectReference: {fileID: 0}
    - target: {fileID: 1767049243671695715, guid: 24fd61ab19cca1f44b1d18bc9c2491e7, type: 3}
      propertyPath: m_Layer
      value: 6
      objectReference: {fileID: 0}
    - target: {fileID: 2077124445837242026, guid: 24fd61ab19cca1f44b1d18bc9c2491e7, type: 3}
      propertyPath: m_Layer
      value: 6
      objectReference: {fileID: 0}
    - target: {fileID: 2588272182798551192, guid: 24fd61ab19cca1f44b1d18bc9c2491e7, type: 3}
      propertyPath: m_Layer
      value: 6
      objectReference: {fileID: 0}
    - target: {fileID: 2745565814162547103, guid: 24fd61ab19cca1f44b1d18bc9c2491e7, type: 3}
      propertyPath: m_Layer
      value: 6
      objectReference: {fileID: 0}
    - target: {fileID: 3017890781613405466, guid: 24fd61ab19cca1f44b1d18bc9c2491e7, type: 3}
      propertyPath: m_Layer
      value: 6
      objectReference: {fileID: 0}
    - target: {fileID: 3096722567901088634, guid: 24fd61ab19cca1f44b1d18bc9c2491e7, type: 3}
      propertyPath: m_Layer
      value: 6
      objectReference: {fileID: 0}
    - target: {fileID: 3104034942343373415, guid: 24fd61ab19cca1f44b1d18bc9c2491e7, type: 3}
      propertyPath: m_Layer
      value: 6
      objectReference: {fileID: 0}
    - target: {fileID: 3706085275210322002, guid: 24fd61ab19cca1f44b1d18bc9c2491e7, type: 3}
      propertyPath: m_Layer
      value: 6
      objectReference: {fileID: 0}
    - target: {fileID: 4052610806398249675, guid: 24fd61ab19cca1f44b1d18bc9c2491e7, type: 3}
      propertyPath: m_Layer
      value: 6
      objectReference: {fileID: 0}
    - target: {fileID: 4169967769902724267, guid: 24fd61ab19cca1f44b1d18bc9c2491e7, type: 3}
      propertyPath: m_Layer
      value: 6
      objectReference: {fileID: 0}
    - target: {fileID: 4697470973441983791, guid: 24fd61ab19cca1f44b1d18bc9c2491e7, type: 3}
      propertyPath: m_Layer
      value: 6
      objectReference: {fileID: 0}
    - target: {fileID: 4783304322467991763, guid: 24fd61ab19cca1f44b1d18bc9c2491e7, type: 3}
      propertyPath: m_Layer
      value: 6
      objectReference: {fileID: 0}
    - target: {fileID: 4852835344671945763, guid: 24fd61ab19cca1f44b1d18bc9c2491e7, type: 3}
      propertyPath: m_Layer
      value: 6
      objectReference: {fileID: 0}
    - target: {fileID: 4907354006204112896, guid: 24fd61ab19cca1f44b1d18bc9c2491e7, type: 3}
      propertyPath: m_Layer
      value: 6
      objectReference: {fileID: 0}
    - target: {fileID: 5223713012374916407, guid: 24fd61ab19cca1f44b1d18bc9c2491e7, type: 3}
      propertyPath: m_Layer
      value: 6
      objectReference: {fileID: 0}
    - target: {fileID: 5249991505870457274, guid: 24fd61ab19cca1f44b1d18bc9c2491e7, type: 3}
      propertyPath: m_Layer
      value: 6
      objectReference: {fileID: 0}
    - target: {fileID: 5547409164963765409, guid: 24fd61ab19cca1f44b1d18bc9c2491e7, type: 3}
      propertyPath: m_Layer
      value: 6
      objectReference: {fileID: 0}
    - target: {fileID: 5719509591131600963, guid: 24fd61ab19cca1f44b1d18bc9c2491e7, type: 3}
      propertyPath: m_Layer
      value: 6
      objectReference: {fileID: 0}
    - target: {fileID: 5770419472436826603, guid: 24fd61ab19cca1f44b1d18bc9c2491e7, type: 3}
      propertyPath: m_Layer
      value: 6
      objectReference: {fileID: 0}
    - target: {fileID: 6162761672796530599, guid: 24fd61ab19cca1f44b1d18bc9c2491e7, type: 3}
      propertyPath: m_Layer
      value: 6
      objectReference: {fileID: 0}
    - target: {fileID: 6202697587065187757, guid: 24fd61ab19cca1f44b1d18bc9c2491e7, type: 3}
      propertyPath: m_Layer
      value: 6
      objectReference: {fileID: 0}
    - target: {fileID: 6415390131402035307, guid: 24fd61ab19cca1f44b1d18bc9c2491e7, type: 3}
      propertyPath: m_Layer
      value: 6
      objectReference: {fileID: 0}
    - target: {fileID: 6432621266384805972, guid: 24fd61ab19cca1f44b1d18bc9c2491e7, type: 3}
      propertyPath: m_Layer
      value: 6
      objectReference: {fileID: 0}
    - target: {fileID: 6549354500036399089, guid: 24fd61ab19cca1f44b1d18bc9c2491e7, type: 3}
      propertyPath: m_Layer
      value: 6
      objectReference: {fileID: 0}
    - target: {fileID: 6718006089473015230, guid: 24fd61ab19cca1f44b1d18bc9c2491e7, type: 3}
      propertyPath: m_Layer
      value: 6
      objectReference: {fileID: 0}
    - target: {fileID: 7257840902233243150, guid: 24fd61ab19cca1f44b1d18bc9c2491e7, type: 3}
      propertyPath: m_Layer
      value: 6
      objectReference: {fileID: 0}
    - target: {fileID: 7821124887758935227, guid: 24fd61ab19cca1f44b1d18bc9c2491e7, type: 3}
      propertyPath: m_Layer
      value: 6
      objectReference: {fileID: 0}
    - target: {fileID: 7967511978242427134, guid: 24fd61ab19cca1f44b1d18bc9c2491e7, type: 3}
      propertyPath: m_Layer
      value: 6
      objectReference: {fileID: 0}
    - target: {fileID: 8048005160117482019, guid: 24fd61ab19cca1f44b1d18bc9c2491e7, type: 3}
      propertyPath: m_Layer
      value: 6
      objectReference: {fileID: 0}
    - target: {fileID: 8152747354051841623, guid: 24fd61ab19cca1f44b1d18bc9c2491e7, type: 3}
      propertyPath: m_Layer
      value: 6
      objectReference: {fileID: 0}
    - target: {fileID: 8372282017456460191, guid: 24fd61ab19cca1f44b1d18bc9c2491e7, type: 3}
      propertyPath: m_Layer
      value: 6
      objectReference: {fileID: 0}
    - target: {fileID: 8461835993026115073, guid: 24fd61ab19cca1f44b1d18bc9c2491e7, type: 3}
      propertyPath: m_Layer
      value: 6
      objectReference: {fileID: 0}
    - target: {fileID: 8484978767200240298, guid: 24fd61ab19cca1f44b1d18bc9c2491e7, type: 3}
      propertyPath: m_Layer
      value: 6
      objectReference: {fileID: 0}
    - target: {fileID: 8615460538884022754, guid: 24fd61ab19cca1f44b1d18bc9c2491e7, type: 3}
      propertyPath: m_Layer
      value: 6
      objectReference: {fileID: 0}
    - target: {fileID: 8753672896039136857, guid: 24fd61ab19cca1f44b1d18bc9c2491e7, type: 3}
      propertyPath: m_Layer
      value: 6
      objectReference: {fileID: 0}
    m_RemovedComponents: []
    m_RemovedGameObjects: []
    m_AddedGameObjects:
    - targetCorrespondingSourceObject: {fileID: -8679921383154817045, guid: 24fd61ab19cca1f44b1d18bc9c2491e7, type: 3}
      insertIndex: -1
      addedObject: {fileID: 4310254202067828924}
    m_AddedComponents:
    - targetCorrespondingSourceObject: {fileID: 919132149155446097, guid: 24fd61ab19cca1f44b1d18bc9c2491e7, type: 3}
      insertIndex: -1
      addedObject: {fileID: 4300378692508928355}
    - targetCorrespondingSourceObject: {fileID: 919132149155446097, guid: 24fd61ab19cca1f44b1d18bc9c2491e7, type: 3}
      insertIndex: -1
      addedObject: {fileID: 2730926279133337347}
    - targetCorrespondingSourceObject: {fileID: 919132149155446097, guid: 24fd61ab19cca1f44b1d18bc9c2491e7, type: 3}
      insertIndex: -1
      addedObject: {fileID: 2088893157067822063}
    - targetCorrespondingSourceObject: {fileID: 919132149155446097, guid: 24fd61ab19cca1f44b1d18bc9c2491e7, type: 3}
      insertIndex: -1
      addedObject: {fileID: 6674336735786612990}
    - targetCorrespondingSourceObject: {fileID: 919132149155446097, guid: 24fd61ab19cca1f44b1d18bc9c2491e7, type: 3}
      insertIndex: -1
      addedObject: {fileID: 5946025211663629625}
    - targetCorrespondingSourceObject: {fileID: 919132149155446097, guid: 24fd61ab19cca1f44b1d18bc9c2491e7, type: 3}
      insertIndex: -1
      addedObject: {fileID: 3066992584530793894}
    - targetCorrespondingSourceObject: {fileID: 919132149155446097, guid: 24fd61ab19cca1f44b1d18bc9c2491e7, type: 3}
      insertIndex: -1
      addedObject: {fileID: 8671622697516531376}
    - targetCorrespondingSourceObject: {fileID: 919132149155446097, guid: 24fd61ab19cca1f44b1d18bc9c2491e7, type: 3}
      insertIndex: -1
      addedObject: {fileID: 1167209409920888712}
  m_SourcePrefab: {fileID: 100100000, guid: 24fd61ab19cca1f44b1d18bc9c2491e7, type: 3}
--- !u!4 &6315754212498205768 stripped
Transform:
  m_CorrespondingSourceObject: {fileID: -8679921383154817045, guid: 24fd61ab19cca1f44b1d18bc9c2491e7, type: 3}
  m_PrefabInstance: {fileID: 5777178802284956579}
  m_PrefabAsset: {fileID: 0}
--- !u!1 &6696219683383785202 stripped
GameObject:
  m_CorrespondingSourceObject: {fileID: 919132149155446097, guid: 24fd61ab19cca1f44b1d18bc9c2491e7, type: 3}
  m_PrefabInstance: {fileID: 5777178802284956579}
  m_PrefabAsset: {fileID: 0}
--- !u!114 &4300378692508928355
MonoBehaviour:
  m_ObjectHideFlags: 0
  m_CorrespondingSourceObject: {fileID: 0}
  m_PrefabInstance: {fileID: 0}
  m_PrefabAsset: {fileID: 0}
  m_GameObject: {fileID: 6696219683383785202}
  m_Enabled: 1
  m_EditorHideFlags: 0
  m_Script: {fileID: 11500000, guid: 9b37216beee5d6a4897e9224d4eedbc1, type: 3}
  m_Name: 
  m_EditorClassIdentifier: 
  animator: {fileID: 0}
  resetStateOnReceive: 1
--- !u!95 &2730926279133337347
Animator:
  serializedVersion: 7
  m_ObjectHideFlags: 0
  m_CorrespondingSourceObject: {fileID: 0}
  m_PrefabInstance: {fileID: 0}
  m_PrefabAsset: {fileID: 0}
  m_GameObject: {fileID: 6696219683383785202}
  m_Enabled: 1
  m_Avatar: {fileID: 0}
  m_Controller: {fileID: 22100000, guid: 6691535e1abe4af43b99ded6241634e9, type: 2}
  m_CullingMode: 0
  m_UpdateMode: 0
  m_ApplyRootMotion: 0
  m_LinearVelocityBlending: 0
  m_StabilizeFeet: 0
  m_AnimatePhysics: 0
  m_WarningMessage: 
  m_HasTransformHierarchy: 1
  m_AllowConstantClipSamplingOptimization: 1
  m_KeepAnimatorStateOnDisable: 0
  m_WriteDefaultValuesOnDisable: 0
--- !u!143 &2088893157067822063
CharacterController:
  m_ObjectHideFlags: 0
  m_CorrespondingSourceObject: {fileID: 0}
  m_PrefabInstance: {fileID: 0}
  m_PrefabAsset: {fileID: 0}
  m_GameObject: {fileID: 6696219683383785202}
  m_Material: {fileID: 0}
  m_IncludeLayers:
    serializedVersion: 2
    m_Bits: 0
  m_ExcludeLayers:
    serializedVersion: 2
    m_Bits: 0
  m_LayerOverridePriority: 0
  m_IsTrigger: 0
  m_ProvidesContacts: 0
  m_Enabled: 1
  serializedVersion: 3
  m_Height: 0.7
  m_Radius: 0.15
  m_SlopeLimit: 45
  m_StepOffset: 0.3
  m_SkinWidth: 0.08
  m_MinMoveDistance: 0.001
  m_Center: {x: 0, y: 0.42, z: 0}
--- !u!114 &6674336735786612990
MonoBehaviour:
  m_ObjectHideFlags: 0
  m_CorrespondingSourceObject: {fileID: 0}
  m_PrefabInstance: {fileID: 0}
  m_PrefabAsset: {fileID: 0}
  m_GameObject: {fileID: 6696219683383785202}
  m_Enabled: 1
  m_EditorHideFlags: 0
  m_Script: {fileID: 11500000, guid: 23401e4c6afa7ec43922ae596b8c60a6, type: 3}
  m_Name: 
  m_EditorClassIdentifier: 
  serverPosition: {x: 0, y: 0, z: 0}
  positionSyncProtection: 1
  positionSyncNodesThreshold: 2
  positionSynced: 0
  positionSyncPaused: 0
  lerpDuration: 0.3
  positionDelta: 0
  lastDesyncTime: 0
  lastDesyncDuration: 0
  maximumAllowedDesyncTimeMs: 300
--- !u!114 &5946025211663629625
MonoBehaviour:
  m_ObjectHideFlags: 0
  m_CorrespondingSourceObject: {fileID: 0}
  m_PrefabInstance: {fileID: 0}
  m_PrefabAsset: {fileID: 0}
  m_GameObject: {fileID: 6696219683383785202}
  m_Enabled: 1
  m_EditorHideFlags: 0
  m_Script: {fileID: 11500000, guid: c0d95d876eae19f4099fa56602b7d22d, type: 3}
  m_Name: 
  m_EditorClassIdentifier: 
  direction: {x: 0, y: 0, z: 0}
  speed: 0
  destination: {x: 0, y: 0, z: 0}
  gravity: 28
--- !u!114 &3066992584530793894
MonoBehaviour:
  m_ObjectHideFlags: 0
  m_CorrespondingSourceObject: {fileID: 0}
  m_PrefabInstance: {fileID: 0}
  m_PrefabAsset: {fileID: 0}
  m_GameObject: {fileID: 6696219683383785202}
  m_Enabled: 1
  m_EditorHideFlags: 0
  m_Script: {fileID: 11500000, guid: 99c9a66a877afa74d92a0ebb9f03618a, type: 3}
  m_Name: 
  m_EditorClassIdentifier: 
  identity:
    entityType: 2
    id: 0
    type: 
    npcClass: 
    npcId: 0
    name: 
    title: 
    model: 0
    position: {x: 0, y: 0, z: 0}
    heading: 0
    collisionHeight: 0
    owned: 0
  status:
    hp: 0
    maxHp: 0
    level: 0
    moveSpeed: 0
    friendly: 0
    aggressive: 0
--- !u!114 &8671622697516531376
MonoBehaviour:
  m_ObjectHideFlags: 0
  m_CorrespondingSourceObject: {fileID: 0}
  m_PrefabInstance: {fileID: 0}
  m_PrefabAsset: {fileID: 0}
  m_GameObject: {fileID: 6696219683383785202}
  m_Enabled: 1
  m_EditorHideFlags: 0
  m_Script: {fileID: 11500000, guid: ae24ab87f9545c74e98453405da53d55, type: 3}
  m_Name: 
  m_EditorClassIdentifier: 
  animator: {fileID: 0}
  npcTemplateName: 
  animationClipName: 
--- !u!114 &1167209409920888712
MonoBehaviour:
  m_ObjectHideFlags: 0
  m_CorrespondingSourceObject: {fileID: 0}
  m_PrefabInstance: {fileID: 0}
  m_PrefabAsset: {fileID: 0}
  m_GameObject: {fileID: 6696219683383785202}
  m_Enabled: 1
  m_EditorHideFlags: 0
  m_Script: {fileID: 11500000, guid: d6b171cd31a29e44a957f2c850e56144, type: 3}
  m_Name: 
  m_EditorClassIdentifier: 
  npcClassName: 
  animator: {fileID: 0}
