%YAML 1.1
%TAG !u! tag:unity3d.com,2011:
--- !u!1045 &1
EditorBuildSettings:
  m_ObjectHideFlags: 0
  serializedVersion: 2
  m_Scenes:
  - enabled: 1
    path: Assets/Scenes/Game.unity
    guid: 9fc0d4010bbf28b4594072e72b8655ab
  - enabled: 1
    path: Assets/Scenes/16_24.unity
    guid: 632a4f5d634a04b439ab2ad8e7372e52
  - enabled: 1
    path: Assets/Scenes/16_25.unity
    guid: 63d3deb48f6b43b4fa86787bf0b8f10d
  - enabled: 1
    path: Assets/Scenes/17_24.unity
    guid: 15db14e7cd5a8374c90cd1b05d29ef72
  - enabled: 1
    path: Assets/Scenes/17_25.unity
    guid: f0784f615b963af4da5cabf21eb397c3
  m_configObjects: {}
  m_UseUCBPForAssetBundles: 0
