%YAML 1.1
%TAG !u! tag:unity3d.com,2011:
--- !u!114 &-5680517046263561030
MonoBehaviour:
  m_ObjectHideFlags: 11
  m_CorrespondingSourceObject: {fileID: 0}
  m_PrefabInstance: {fileID: 0}
  m_PrefabAsset: {fileID: 0}
  m_GameObject: {fileID: 0}
  m_Enabled: 1
  m_EditorHideFlags: 0
  m_Script: {fileID: 11500000, guid: d0353a89b1f911e48b9e16bdc9f2e058, type: 3}
  m_Name: 
  m_EditorClassIdentifier: 
  version: 9
--- !u!21 &2100000
Material:
  serializedVersion: 8
  m_ObjectHideFlags: 0
  m_CorrespondingSourceObject: {fileID: 0}
  m_PrefabInstance: {fileID: 0}
  m_PrefabAsset: {fileID: 0}
  m_Name: 17_25_Mat
  m_Shader: {fileID: -6465566751694194690, guid: 5e242b9ad3ac8604bbaf7906e6e97455, type: 3}
  m_Parent: {fileID: 0}
  m_ModifiedSerializedProperties: 0
  m_ValidKeywords: []
  m_InvalidKeywords: []
  m_LightmapFlags: 2
  m_EnableInstancingVariants: 0
  m_DoubleSidedGI: 0
  m_CustomRenderQueue: -1
  stringTagMap: {}
  disabledShaderPasses:
  - MOTIONVECTORS
  m_LockedProperties: 
  m_SavedProperties:
    serializedVersion: 3
    m_TexEnvs:
    - _Layer_0:
        m_Texture: {fileID: 2800000, guid: 08e6d04cc5a803a409eb908926184548, type: 3}
        m_Scale: {x: 1, y: 1}
        m_Offset: {x: 0, y: 0}
    - _Layer_1:
        m_Texture: {fileID: 2800000, guid: 3338c516ad64a594eb93e50004c1ed54, type: 3}
        m_Scale: {x: 1, y: 1}
        m_Offset: {x: 0, y: 0}
    - _Layer_2:
        m_Texture: {fileID: 2800000, guid: aa0f98c9a49caec4796fb65675faea80, type: 3}
        m_Scale: {x: 1, y: 1}
        m_Offset: {x: 0, y: 0}
    - _Layer_3:
        m_Texture: {fileID: 2800000, guid: c9d2be76e8ba3db4baa9e253c1356282, type: 3}
        m_Scale: {x: 1, y: 1}
        m_Offset: {x: 0, y: 0}
    - _Layer_4:
        m_Texture: {fileID: 2800000, guid: 1013a1df440dad9439b07e2fa290b415, type: 3}
        m_Scale: {x: 1, y: 1}
        m_Offset: {x: 0, y: 0}
    - _Layer_5:
        m_Texture: {fileID: 2800000, guid: 09cc41c8c82f00f44a82a5a662d90c94, type: 3}
        m_Scale: {x: 2, y: 2}
        m_Offset: {x: 0, y: 0}
    - _Layer_6:
        m_Texture: {fileID: 2800000, guid: aa4f40a1af3e7ef4fb4d01848e66d1ca, type: 3}
        m_Scale: {x: 1, y: 1}
        m_Offset: {x: 0, y: 0}
    - _Layer_7:
        m_Texture: {fileID: 2800000, guid: ab400d57ec589634c927ddc28f0c61cf, type: 3}
        m_Scale: {x: 1, y: 1}
        m_Offset: {x: 0, y: 0}
    - _Layer_8:
        m_Texture: {fileID: 2800000, guid: 83899da1dfe18ab42a274dbe1135ce4a, type: 3}
        m_Scale: {x: 1, y: 1}
        m_Offset: {x: 0, y: 0}
    - _Layer_9:
        m_Texture: {fileID: 2800000, guid: 111be74d307e42c4495875a668593118, type: 3}
        m_Scale: {x: 1, y: 1}
        m_Offset: {x: 0, y: 0}
    - _Splatmaps:
        m_Texture: {fileID: 18700000, guid: 0a47b45cf05e7ba418763cf176cd2959, type: 2}
        m_Scale: {x: 1, y: 1}
        m_Offset: {x: 0, y: 0}
    - unity_Lightmaps:
        m_Texture: {fileID: 0}
        m_Scale: {x: 1, y: 1}
        m_Offset: {x: 0, y: 0}
    - unity_LightmapsInd:
        m_Texture: {fileID: 0}
        m_Scale: {x: 1, y: 1}
        m_Offset: {x: 0, y: 0}
    - unity_ShadowMasks:
        m_Texture: {fileID: 0}
        m_Scale: {x: 1, y: 1}
        m_Offset: {x: 0, y: 0}
    m_Ints: []
    m_Floats:
    - _Layer_1_Enabled: 1
    - _Layer_2_Enabled: 1
    - _Layer_3_Enabled: 1
    - _Layer_4_Enabled: 1
    - _Layer_5_Enabled: 1
    - _Layer_6_Enabled: 1
    - _Layer_7_Enabled: 1
    - _Layer_8_Enabled: 1
    - _Layer_9_Enabled: 1
    - _QueueControl: 0
    - _QueueOffset: 0
    m_Colors:
    - _UVSize: {r: 180, g: 180, b: 0, a: 0}
  m_BuildTextureStacks: []
  m_AllowLocking: 1
