%YAML 1.1
%TAG !u! tag:unity3d.com,2011:
--- !u!1001 &5262468205753302783
PrefabInstance:
  m_ObjectHideFlags: 0
  serializedVersion: 2
  m_Modification:
    serializedVersion: 3
    m_TransformParent: {fileID: 0}
    m_Modifications:
    - target: {fileID: 378475489423219336, guid: 2887f2251be1be64ca9774c2bce210a5, type: 3}
      propertyPath: m_Name
      value: Water
      objectReference: {fileID: 0}
    - target: {fileID: 5611962975456626219, guid: 2887f2251be1be64ca9774c2bce210a5, type: 3}
      propertyPath: m_LocalScale.x
      value: 800
      objectReference: {fileID: 0}
    - target: {fileID: 5611962975456626219, guid: 2887f2251be1be64ca9774c2bce210a5, type: 3}
      propertyPath: m_LocalScale.z
      value: 800
      objectReference: {fileID: 0}
    - target: {fileID: 5611962975456626219, guid: 2887f2251be1be64ca9774c2bce210a5, type: 3}
      propertyPath: m_LocalPosition.x
      value: 4584.96
      objectReference: {fileID: 0}
    - target: {fileID: 5611962975456626219, guid: 2887f2251be1be64ca9774c2bce210a5, type: 3}
      propertyPath: m_LocalPosition.y
      value: -72.9
      objectReference: {fileID: 0}
    - target: {fileID: 5611962975456626219, guid: 2887f2251be1be64ca9774c2bce210a5, type: 3}
      propertyPath: m_LocalPosition.z
      value: -1968.64
      objectReference: {fileID: 0}
    - target: {fileID: 5611962975456626219, guid: 2887f2251be1be64ca9774c2bce210a5, type: 3}
      propertyPath: m_LocalRotation.w
      value: 1
      objectReference: {fileID: 0}
    - target: {fileID: 5611962975456626219, guid: 2887f2251be1be64ca9774c2bce210a5, type: 3}
      propertyPath: m_LocalRotation.x
      value: 0
      objectReference: {fileID: 0}
    - target: {fileID: 5611962975456626219, guid: 2887f2251be1be64ca9774c2bce210a5, type: 3}
      propertyPath: m_LocalRotation.y
      value: 0
      objectReference: {fileID: 0}
    - target: {fileID: 5611962975456626219, guid: 2887f2251be1be64ca9774c2bce210a5, type: 3}
      propertyPath: m_LocalRotation.z
      value: 0
      objectReference: {fileID: 0}
    - target: {fileID: 5611962975456626219, guid: 2887f2251be1be64ca9774c2bce210a5, type: 3}
      propertyPath: m_LocalEulerAnglesHint.x
      value: 0
      objectReference: {fileID: 0}
    - target: {fileID: 5611962975456626219, guid: 2887f2251be1be64ca9774c2bce210a5, type: 3}
      propertyPath: m_LocalEulerAnglesHint.y
      value: 0
      objectReference: {fileID: 0}
    - target: {fileID: 5611962975456626219, guid: 2887f2251be1be64ca9774c2bce210a5, type: 3}
      propertyPath: m_LocalEulerAnglesHint.z
      value: 0
      objectReference: {fileID: 0}
    - target: {fileID: 8993838157781146034, guid: 2887f2251be1be64ca9774c2bce210a5, type: 3}
      propertyPath: m_Enabled
      value: 0
      objectReference: {fileID: 0}
    m_RemovedComponents: []
    m_RemovedGameObjects: []
    m_AddedGameObjects: []
    m_AddedComponents: []
  m_SourcePrefab: {fileID: 100100000, guid: 2887f2251be1be64ca9774c2bce210a5, type: 3}
