%YAML 1.1
%TAG !u! tag:unity3d.com,2011:
--- !u!221 &22100000
AnimatorOverrideController:
  m_ObjectHideFlags: 0
  m_CorrespondingSourceObject: {fileID: 0}
  m_PrefabInstance: {fileID: 0}
  m_PrefabAsset: {fileID: 0}
  m_Name: elpy
  m_Controller: {fileID: 9100000, guid: 90471f566f40c1641875d2f74c5e9132, type: 2}
  m_Clips:
  - m_OriginalClip: {fileID: 7400000, guid: 1dafdf1a45f67b74aa185e4725d6b826, type: 2}
    m_OverrideClip: {fileID: 7400000, guid: 41522a7a0d3850f4a939dce2f6877a48, type: 2}
  - m_OriginalClip: {fileID: 7400000, guid: c4a3c96ddd836d54698186781f016587, type: 2}
    m_OverrideClip: {fileID: 7400000, guid: 41522a7a0d3850f4a939dce2f6877a48, type: 2}
  - m_OriginalClip: {fileID: 7400000, guid: e8306b85fffba0645b94c8b33d1f8fb9, type: 2}
    m_OverrideClip: {fileID: 7400000, guid: 773faa0741f1c1449b64e5893983a000, type: 2}
  - m_OriginalClip: {fileID: 7400000, guid: 0a3c95668f425bb44852ea5cb00debeb, type: 2}
    m_OverrideClip: {fileID: 7400000, guid: a128905bc328ced4aafe9c2f89c1d870, type: 2}
  - m_OriginalClip: {fileID: 7400000, guid: d6ee8774ddc63194a96e2d4acd3b3dfa, type: 2}
    m_OverrideClip: {fileID: 7400000, guid: 24523124db3d3294580743b7de8cd45f, type: 2}
  - m_OriginalClip: {fileID: 7400000, guid: 3a2b0b7ffe62c524f8632d6c94811690, type: 2}
    m_OverrideClip: {fileID: 7400000, guid: 07b8088f166b7d84bba4c96975532ad8, type: 2}
  - m_OriginalClip: {fileID: 7400000, guid: ceb3b0244b6854748a12e786d542ca12, type: 2}
    m_OverrideClip: {fileID: 7400000, guid: beb6eb86cb37c9745b9558da0b16fd66, type: 2}
  - m_OriginalClip: {fileID: 7400000, guid: 935e5b15b90f21944ae0f547f94f8e84, type: 2}
    m_OverrideClip: {fileID: 7400000, guid: 07b8088f166b7d84bba4c96975532ad8, type: 2}
